{
  "tenant": "96973449-0a60-448a-b1ad-3c7237cd6563",
  "client_id": "13f8aa99-0f79-412a-adb6-37a03fa09b1e",
  "scope": "https://graph.microsoft.com/.default",
  "client_secret": "eBCqRTgx0LHz8ujWH0+fbmzpaOGpXEg7R2DePCV/tmA=",
  "grant_type": "client_credentials"
}